%YAML 1.1
%TAG !u! tag:unity3d.com,2011:
--- !u!78 &1
TagManager:
  serializedVersion: 2
  tags:
  - MapContainer
  - CharacterDetailsContainer
  - Platform
  - ExplorationActionArea
  - GameManager
  - UnitsAreaLeft
  - UnitsAreaRight
  - LevelEdge
  - UnitAvatar
  - Unit
  - AnimationArea
  - ActionCard
  - RuneCard
  - CardsInventory
  - Tooltip
  - InventoryItem
  - InventoryItemTarget
  - PlatformResources
  - PlatformFeature
  - DangerCard
  layers:
  - Default
  - TransparentFX
  - Ignore Raycast
  - 
  - Water
  - UI
  - 
  - 
  - Popup
  - 
  - 
  - 
  - 
  - 
  - 
  - 
  - 
  - 
  - 
  - 
  - 
  - 
  - 
  - 
  - 
  - 
  - 
  - 
  - 
  - 
  - 
  - 
  m_SortingLayers:
  - name: Default
    uniqueID: 0
    locked: 0
